Transformar y seleccionar variables | Análisis Estadístico en R
…
1 Muy de acuerdo

2 De acuerdo

3 Ni de acuerdo ni en desacuerdo

4 En desacuerdo

5 Muy en desacuerdo

Para ello seleccionaremos sólo a las personas que estan de acuerdo de que el gobierno garantice un mínimo de vida.

datos_proc %>% select(1:2, garan_min_vid) # seleccionan las categorias de respuesta y luego la variable de donde lo seleccionarán

## # A tibble: 2,613 x 3
##    edad       sexo      garan_min_vid
##   <dbl>  <dbl+lbl>          <dbl+lbl>
## 1    40 1 [Hombre] 1 [Muy de acuerdo]
## 2    18 1 [Hombre] 1 [Muy de acuerdo]
## 3    66 2 [Mujer]  1 [Muy de acuerdo]
## 4    56 2 [Mujer]  2 [De acuerdo]    
## 5    63 1 [Hombre] 1 [Muy de acuerdo]
## 6    62 2 [Mujer]  1 [Muy de acuerdo]
## 7    54 1 [Hombre] 2 [De acuerdo]    
## 8    75 2 [Mujer]  2 [De acuerdo]    
## 9    36 2 [Mujer]  2 [De acuerdo]    
##10    40 2 [Mujer]  2 [De acuerdo]    
## # ... with 2,603 more rows

En este caso seleccionamos todo según los datos de la variable garan_min_vid, con everything(). Que selecciona todas las columnas o las columnas que quedan después de aplicar las funciones de selección. Es decir las personas que estan de acuerdo con que el gobienro garantice un mínimo de vida.

datos_proc %>%  select(garan_min_vid, everything())

## # A tibble: 2,613 x 5
##        garan_min_vid  edad      sexo        clase_sub             just_pago_educ
##            <dbl+lbl> <dbl> <dbl+lbl>        <dbl+lbl>                  <dbl+lbl>
##  1 1 [Muy de acuerd~    40 1 [Hombr~ 4 [Clase media ~ 4 [En desacuerdo]         
##  2 1 [Muy de acuerd~    18 1 [Hombr~ 3 [Clase media]  3 [Ni de acuerdo ni en de~
##  3 1 [Muy de acuerd~    66 2 [Mujer] 3 [Clase media]  4 [En desacuerdo]         
##  4 2 [De acuerdo]       56 2 [Mujer] 5 [Clase baja]   4 [En desacuerdo]         
##  5 1 [Muy de acuerd~    63 1 [Hombr~ 5 [Clase baja]   4 [En desacuerdo]         
##  6 1 [Muy de acuerd~    62 2 [Mujer] 4 [Clase media ~ 1 [Muy de acuerdo]        
##  7 2 [De acuerdo]       54 1 [Hombr~ 4 [Clase media ~ 2 [De acuerdo]            
##  8 2 [De acuerdo]       75 2 [Mujer] 5 [Clase baja]   4 [En desacuerdo]         
##  9 2 [De acuerdo]       36 2 [Mujer] 4 [Clase media ~ 4 [En desacuerdo]         
## 10 2 [De acuerdo]       40 2 [Mujer] 5 [Clase baja]   4 [En desacuerdo]         
## # ... with 2,603 more rows

Selección y renombrar

También podemos seleccionar y renombrar, es decir, seleccionar según garan_min_vid y renombrar la variable cómo acuerdo_garan_min_vid

datos_proc %>%  select(garan_min_vid, acuerdo_garan_min_vid = garan_min_vid ,everything())

## # A tibble: 2,613 x 5
##    acuerdo_garan_min_~  edad      sexo       clase_sub            just_pago_educ
##              <dbl+lbl> <dbl> <dbl+lbl>       <dbl+lbl>                 <dbl+lbl>
##  1  1 [Muy de acuerdo]    40 1 [Hombr~ 4 [Clase media~ 4 [En desacuerdo]        
##  2  1 [Muy de acuerdo]    18 1 [Hombr~ 3 [Clase media] 3 [Ni de acuerdo ni en d~
##  3  1 [Muy de acuerdo]    66 2 [Mujer] 3 [Clase media] 4 [En desacuerdo]        
##  4  2 [De acuerdo]        56 2 [Mujer] 5 [Clase baja]  4 [En desacuerdo]        
##  5  1 [Muy de acuerdo]    63 1 [Hombr~ 5 [Clase baja]  4 [En desacuerdo]        
##  6  1 [Muy de acuerdo]    62 2 [Mujer] 4 [Clase media~ 1 [Muy de acuerdo]       
##  7  2 [De acuerdo]        54 1 [Hombr~ 4 [Clase media~ 2 [De acuerdo]           
##  8  2 [De acuerdo]        75 2 [Mujer] 5 [Clase baja]  4 [En desacuerdo]        
##  9  2 [De acuerdo]        36 2 [Mujer] 4 [Clase media~ 4 [En desacuerdo]        
## 10  2 [De acuerdo]        40 2 [Mujer] 5 [Clase baja]  4 [En desacuerdo]        
## # ... with 2,603 more rows

Selección que inicia con prefijos (starts_with) y termina con sufijos (ends_with)

El primer ejemplo muestra la selección de casos que inicien con la variable edad y que terminen con sexo

datos_proc %>% select(starts_with("edad"), ends_with("sexo"))

## # A tibble: 2,613 x 2
##     edad       sexo
##    <dbl>  <dbl+lbl>
##  1    40 1 [Hombre]
##  2    18 1 [Hombre]
##  3    66 2 [Mujer] 
##  4    56 2 [Mujer] 
##  5    63 1 [Hombre]
##  6    62 2 [Mujer] 
##  7    54 1 [Hombre]
##  8    75 2 [Mujer] 
##  9    36 2 [Mujer] 
## 10    40 2 [Mujer] 
## # ... with 2,603 more rows

Selección que contiene cadenas (contains)

El segundo selecciona los casos que contienen una letra m o los que contienen una letra y

datos_proc %>% select(contains("m")|contains("y"))

## # A tibble: 2,613 x 1
##         garan_min_vid
##             <dbl+lbl>
##  1 1 [Muy de acuerdo]
##  2 1 [Muy de acuerdo]
##  3 1 [Muy de acuerdo]
##  4 2 [De acuerdo]    
##  5 1 [Muy de acuerdo]
##  6 1 [Muy de acuerdo]
##  7 2 [De acuerdo]    
##  8 2 [De acuerdo]    
##  9 2 [De acuerdo]    
## 10 2 [De acuerdo]    
## # ... with 2,603 more rows

Selección con expresiones (matches)

El último ejemplo, selecciona las variables que contengan el nombre sexo

datos_proc %>% select(matches("sexo"))

## # A tibble: 2,613 x 1
##          sexo
##     <dbl+lbl>
##  1 1 [Hombre]
##  2 1 [Hombre]
##  3 2 [Mujer] 
##  4 2 [Mujer] 
##  5 1 [Hombre]
##  6 2 [Mujer] 
##  7 1 [Hombre]
##  8 2 [Mujer] 
##  9 2 [Mujer] 
## 10 2 [Mujer] 
## # ... with 2,603 more rows

Selección y función where

La función select puede combinarse con la función where, es decir selecciona con la condición cuando, en este caso selecciona cuando el valor es numérico.

datos_proc %>% select(where(is.numeric))

## # A tibble: 2,613 x 5
##     edad      sexo     garan_min_vid        clase_sub             just_pago_educ
##    <dbl> <dbl+lbl>         <dbl+lbl>        <dbl+lbl>                  <dbl+lbl>
##  1    40 1 [Hombr~ 1 [Muy de acuerd~ 4 [Clase media ~ 4 [En desacuerdo]         
##  2    18 1 [Hombr~ 1 [Muy de acuerd~ 3 [Clase media]  3 [Ni de acuerdo ni en de~
##  3    66 2 [Mujer] 1 [Muy de acuerd~ 3 [Clase media]  4 [En desacuerdo]         
##  4    56 2 [Mujer] 2 [De acuerdo]    5 [Clase baja]   4 [En desacuerdo]         
##  5    63 1 [Hombr~ 1 [Muy de acuerd~ 5 [Clase baja]   4 [En desacuerdo]         
##  6    62 2 [Mujer] 1 [Muy de acuerd~ 4 [Clase media ~ 1 [Muy de acuerdo]        
##  7    54 1 [Hombr~ 2 [De acuerdo]    4 [Clase media ~ 2 [De acuerdo]            
##  8    75 2 [Mujer] 2 [De acuerdo]    5 [Clase baja]   4 [En desacuerdo]         
##  9    36 2 [Mujer] 2 [De acuerdo]    4 [Clase media ~ 4 [En desacuerdo]         
## 10    40 2 [Mujer] 2 [De acuerdo]    5 [Clase baja]   4 [En desacuerdo]         
## # ... with 2,603 more rows

5.2 filter()

La función filter de dplyr, escoge o extrae filas basados en sus valores, subdivide un data frame, reteniendo todas las filas que satisfacen sus condiciones.

Antes de esto, hay que tener en cuenta que para establecer las condiciones a utilizar en las funciones debemos usar operadores, ya que la estructutra será filter(data, variable (operador lógico) condición)

Filtar según caracteres

A la hora de filtrar según caracteres nuestro primer ejemplo nos muestra cómo filtrar los datos excluyendo el sexo Hombre

filter(datos_proc, sexo  != "Hombre")

## # A tibble: 1,601 x 5
##    edad sexo       garan_min_vid            clase_sub        just_pago_educ
##   <dbl> <fct>          <dbl+lbl>            <dbl+lbl>             <dbl+lbl>
## 1    66 Mujer 1 [Muy de acuerdo] 3 [Clase media]      4 [En desacuerdo]    
## 2    56 Mujer 2 [De acuerdo]     5 [Clase baja]       4 [En desacuerdo]    
## 3    62 Mujer 1 [Muy de acuerdo] 4 [Clase media baja] 1 [Muy de acuerdo]   
## 4    75 Mujer 2 [De acuerdo]     5 [Clase baja]       4 [En desacuerdo]    
## 5    36 Mujer 2 [De acuerdo]     4 [Clase media baja] 4 [En desacuerdo]    
## 6    40 Mujer 2 [De acuerdo]     5 [Clase baja]       4 [En desacuerdo]    
## 7    29 Mujer 2 [De acuerdo]     2 [Clase media alta] 4 [En desacuerdo]    
## 8    53 Mujer 2 [De acuerdo]     3 [Clase media]      4 [En desacuerdo]    
## 9    31 Mujer 2 [De acuerdo]     5 [Clase baja]       5 [Muy en desacuerdo]
## 10    48 Mujer 2 [De acuerdo]     3 [Clase media]      5 [Muy en desacuerdo]
## # ... with 1,591 more rows
> 

Ahora si queremos filtrar y dejar sólo a los hombres, se usa el operador ==

filter(datos_proc, sexo == "hombre") 

## # A tibble: 0 x 5
## # ... with 5 variables: edad <dbl>, sexo <fct>, garan_min_vid <dbl+lbl>, clase_sub <dbl+lbl>, just_pago_educ <dbl+lbl>

En este caso no sirvio el comando porque no esta escrito correctamente (Sin mayúscula)

filter(datos_proc, sexo == "Hombre")

## # A tibble: 1,012 x 5
##    edad sexo                        garan_min_vid            clase_sub                     just_pago_educ
##   <dbl> <fct>                           <dbl+lbl>            <dbl+lbl>                          <dbl+lbl>
## 1    40 Hombre 1 [Muy de acuerdo]                 4 [Clase media baja] 4 [En desacuerdo]                 
## 2    18 Hombre 1 [Muy de acuerdo]                 3 [Clase media]      3 [Ni de acuerdo ni en desacuerdo]
## 3    63 Hombre 1 [Muy de acuerdo]                 5 [Clase baja]       4 [En desacuerdo]                 
## 4    54 Hombre 2 [De acuerdo]                     4 [Clase media baja] 2 [De acuerdo]                    
## 5    18 Hombre 2 [De acuerdo]                     5 [Clase baja]       4 [En desacuerdo]                 
## 6    20 Hombre 2 [De acuerdo]                     4 [Clase media baja] 3 [Ni de acuerdo ni en desacuerdo]
## 7    23 Hombre 2 [De acuerdo]                     4 [Clase media baja] 3 [Ni de acuerdo ni en desacuerdo]
## 8    26 Hombre 1 [Muy de acuerdo]                 4 [Clase media baja] 3 [Ni de acuerdo ni en desacuerdo]
## 9    27 Hombre 3 [Ni de acuerdo ni en desacuerdo] 4 [Clase media baja] 3 [Ni de acuerdo ni en desacuerdo]
## 10    63 Hombre 2 [De acuerdo]                     3 [Clase media]      2 [De acuerdo]                    
## # ... with 1,002 more rows
…
filter(datos_proc, sexo %in% c("Mujer", "Hombre"))

## # A tibble: 0 x 5
## # ... with 5 variables: edad <dbl>, sexo <dbl+lbl>, garan_min_vid <dbl+lbl>,
## #   clase_sub <dbl+lbl>, just_pago_educ <dbl+lbl>

Filtar según números

Ahora filtraremos según datos numéricos

En este caso queremos dejar todos los casos que sean de clase media, clase media baja, o clase baja

filter(datos_proc, clase_sub > 3)

## # A tibble: 1,284 x 5
##     edad       sexo      garan_min_vid            clase_sub       just_pago_educ
##    <dbl>  <dbl+lbl>          <dbl+lbl>            <dbl+lbl>            <dbl+lbl>
##  1    40 1 [Hombre] 1 [Muy de acuerdo] 4 [Clase media baja] 4 [En desacuerdo]   
##  2    56 2 [Mujer]  2 [De acuerdo]     5 [Clase baja]       4 [En desacuerdo]   
##  3    63 1 [Hombre] 1 [Muy de acuerdo] 5 [Clase baja]       4 [En desacuerdo]   
##  4    62 2 [Mujer]  1 [Muy de acuerdo] 4 [Clase media baja] 1 [Muy de acuerdo]  
##  5    54 1 [Hombre] 2 [De acuerdo]     4 [Clase media baja] 2 [De acuerdo]      
##  6    75 2 [Mujer]  2 [De acuerdo]     5 [Clase baja]       4 [En desacuerdo]   
##  7    36 2 [Mujer]  2 [De acuerdo]     4 [Clase media baja] 4 [En desacuerdo]   
##  8    40 2 [Mujer]  2 [De acuerdo]     5 [Clase baja]       4 [En desacuerdo]   
##  9    31 2 [Mujer]  2 [De acuerdo]     5 [Clase baja]       5 [Muy en desacuerd~
## 10    18 1 [Hombre] 2 [De acuerdo]     5 [Clase baja]       4 [En desacuerdo]   
## # ... with 1,274 more rows

Acá podemos ver que parten desde Clase media baja, pero si queremos considerar la Clase media, usamos el operador mayor o igual. Además con el operador & nos añadirá también a las mujeres

filter(datos_proc, clase_sub >= 3)

## # A tibble: 2,174 x 5
##     edad      sexo     garan_min_vid        clase_sub             just_pago_educ
##    <dbl> <dbl+lbl>         <dbl+lbl>        <dbl+lbl>                  <dbl+lbl>
##  1    40 1 [Hombr~ 1 [Muy de acuerd~ 4 [Clase media ~ 4 [En desacuerdo]         
##  2    18 1 [Hombr~ 1 [Muy de acuerd~ 3 [Clase media]  3 [Ni de acuerdo ni en de~
##  3    66 2 [Mujer] 1 [Muy de acuerd~ 3 [Clase media]  4 [En desacuerdo]         
##  4    56 2 [Mujer] 2 [De acuerdo]    5 [Clase baja]   4 [En desacuerdo]         
##  5    63 1 [Hombr~ 1 [Muy de acuerd~ 5 [Clase baja]   4 [En desacuerdo]         
##  6    62 2 [Mujer] 1 [Muy de acuerd~ 4 [Clase media ~ 1 [Muy de acuerdo]        
##  7    54 1 [Hombr~ 2 [De acuerdo]    4 [Clase media ~ 2 [De acuerdo]            
##  8    75 2 [Mujer] 2 [De acuerdo]    5 [Clase baja]   4 [En desacuerdo]         
##  9    36 2 [Mujer] 2 [De acuerdo]    4 [Clase media ~ 4 [En desacuerdo]         
## 10    40 2 [Mujer] 2 [De acuerdo]    5 [Clase baja]   4 [En desacuerdo]         
## # ... with 2,164 more rows

5.3 mutate ()

La función de mutate añade nuevas variables que son funciones de variables existentes, es decir transforma datos existentes de un data frame a nuevas columnas.

creación de variable a partir de cálculos

En nuestro primer ejemplo, crearemos una variable a partir de un cálculo, la llamaremos nueva variable y será la suma de 2 y 3, su estructura será mutate(datos_proc, nueva_variable = calculo/condicion)

mutate(datos_proc, nueva_variable = 3+2)

## # A tibble: 2,613 x 6
##     edad     sexo   garan_min_vid   clase_sub      just_pago_educ nueva_variable
##    <dbl> <dbl+lb>       <dbl+lbl>   <dbl+lbl>           <dbl+lbl>          <dbl>
##  1    40 1 [Homb~ 1 [Muy de acue~ 4 [Clase m~ 4 [En desacuerdo]                5
##  2    18 1 [Homb~ 1 [Muy de acue~ 3 [Clase m~ 3 [Ni de acuerdo n~              5
##  3    66 2 [Muje~ 1 [Muy de acue~ 3 [Clase m~ 4 [En desacuerdo]                5
##  4    56 2 [Muje~ 2 [De acuerdo]  5 [Clase b~ 4 [En desacuerdo]                5
##  5    63 1 [Homb~ 1 [Muy de acue~ 5 [Clase b~ 4 [En desacuerdo]                5
##  6    62 2 [Muje~ 1 [Muy de acue~ 4 [Clase m~ 1 [Muy de acuerdo]               5
##  7    54 1 [Homb~ 2 [De acuerdo]  4 [Clase m~ 2 [De acuerdo]                   5
##  8    75 2 [Muje~ 2 [De acuerdo]  5 [Clase b~ 4 [En desacuerdo]                5
##  9    36 2 [Muje~ 2 [De acuerdo]  4 [Clase m~ 4 [En desacuerdo]                5
## 10    40 2 [Muje~ 2 [De acuerdo]  5 [Clase b~ 4 [En desacuerdo]                5
## # ... with 2,603 more rows
…
5.3.1 recode()

La función denominada recode puede reemplazar valores numéricos en base a su posición o su nombre, y valores de caracteres o factores sólo por su nombre.

Factors

Para reemplazar caracteres o factores en este caso de la variable sexo, transformaremos las categorias de respuestas de Mujer a Femenino y de Hombre a Masculino

datos_proc %>% 
  mutate(sexo = recode(sexo, "Mujer" = "Femenino", "Hombre" = "Masculino"))

## # A tibble: 2,613 x 5
##    edad sexo           garan_min_vid            clase_sub                     just_pago_educ
##   <dbl> <fct>              <dbl+lbl>            <dbl+lbl>                          <dbl+lbl>
## 1    40 Masculino 1 [Muy de acuerdo] 4 [Clase media baja] 4 [En desacuerdo]                 
## 2    18 Masculino 1 [Muy de acuerdo] 3 [Clase media]      3 [Ni de acuerdo ni en desacuerdo]
## 3    66 Femenino  1 [Muy de acuerdo] 3 [Clase media]      4 [En desacuerdo]                 
## 4    56 Femenino  2 [De acuerdo]     5 [Clase baja]       4 [En desacuerdo]                 
## 5    63 Masculino 1 [Muy de acuerdo] 5 [Clase baja]       4 [En desacuerdo]                 
## 6    62 Femenino  1 [Muy de acuerdo] 4 [Clase media baja] 1 [Muy de acuerdo]                
## 7    54 Masculino 2 [De acuerdo]     4 [Clase media baja] 2 [De acuerdo]                    
## 8    75 Femenino  2 [De acuerdo]     5 [Clase baja]       4 [En desacuerdo]                 
## 9    36 Femenino  2 [De acuerdo]     4 [Clase media baja] 4 [En desacuerdo]                 
## 10    40 Femenino  2 [De acuerdo]     5 [Clase baja]       4 [En desacuerdo]                 
## # ... with 2,603 more rows

Numeric

Luego transformaremos las categorias de respuesta de 1 a 5 en el grado de acuerdo o desacuerdo. Previo a esto es necesario recodificar la variable como caracter, en este caso se establece que los numeros que tiene la variable son categorias, es decir 1 es la categoría 1 y no un número. Ver la diferencia entre character y factor en el práctico anterior

datos_proc$just_pago_educ <- as.character(datos_proc$just_pago_educ) 

datos_proc %>% 
  mutate(just_pago_educ = recode (just_pago_educ, "1" = "Muy de acuerdo", "2" = "De acuerdo", "3" = "Ni de acuerdo ni en desacuerdo", "4" = "En desacuerdo", "5" = "Muy en desacuerdo"))

## # A tibble: 2,613 x 5
##    edad sexo        garan_min_vid            clase_sub just_pago_educ                
##   <dbl> <fct>           <dbl+lbl>            <dbl+lbl> <chr>                         
## 1    40 Hombre 1 [Muy de acuerdo] 4 [Clase media baja] En desacuerdo                 
## 2    18 Hombre 1 [Muy de acuerdo] 3 [Clase media]      Ni de acuerdo ni en desacuerdo
## 3    66 Mujer  1 [Muy de acuerdo] 3 [Clase media]      En desacuerdo                 
## 4    56 Mujer  2 [De acuerdo]     5 [Clase baja]       En desacuerdo                 
## 5    63 Hombre 1 [Muy de acuerdo] 5 [Clase baja]       En desacuerdo                 
## 6    62 Mujer  1 [Muy de acuerdo] 4 [Clase media baja] Muy de acuerdo                
## 7    54 Hombre 2 [De acuerdo]     4 [Clase media baja] De acuerdo                    
## 8    75 Mujer  2 [De acuerdo]     5 [Clase baja]       En desacuerdo                 
## 9    36 Mujer  2 [De acuerdo]     4 [Clase media baja] En desacuerdo                 
## 10    40 Mujer  2 [De acuerdo]     5 [Clase baja]       En desacuerdo                 
## # ... with 2,603 more rows

Si bien en este caso más simple usar el comando de Forcast as_factor, en ocasiones la/el investigador puede requerir tener distintos nombres de categorias, por lo que resultaría más útil este procedimiento.

5.3.2 if_else()

La función if_else comprueba condiciones lógicas en su primer argumento, en este caso queremos crear una nueva variable denominada d_sexo que cumpla la condición que la categoría Mujer sea visualizado como 1 y los demás como 0, su estructura será if_else(condition, Verdadero, Falso)

datos_proc %>% 
 		 mutate(d_sexo = if_else(sexo == "Mujer", 1, 0))

## # A tibble: 2,613 x 6
##    edad sexo        garan_min_vid            clase_sub just_pago_educ d_sexo
##   <dbl> <fct>           <dbl+lbl>            <dbl+lbl> <chr>           <dbl>
## 1    40 Hombre 1 [Muy de acuerdo] 4 [Clase media baja] 4                   0
## 2    18 Hombre 1 [Muy de acuerdo] 3 [Clase media]      3                   0
## 3    66 Mujer  1 [Muy de acuerdo] 3 [Clase media]      4                   1
## 4    56 Mujer  2 [De acuerdo]     5 [Clase baja]       4                   1
## 5    63 Hombre 1 [Muy de acuerdo] 5 [Clase baja]       4                   0
## 6    62 Mujer  1 [Muy de acuerdo] 4 [Clase media baja] 1                   1
## 7    54 Hombre 2 [De acuerdo]     4 [Clase media baja] 2                   0
## 8    75 Mujer  2 [De acuerdo]     5 [Clase baja]       4                   1
## 9    36 Mujer  2 [De acuerdo]     4 [Clase media baja] 4                   1
## 10    40 Mujer  2 [De acuerdo]     5 [Clase baja]       4                   1
## # ... with 2,603 more rows
…
